{
	"info": {
		"_postman_id": "93c4a1d9-101e-4c5f-ba5c-4a207f6ab187",
		"name": "sea food ecommerce",
		"schema": "https://schema.getpostman.com/json/collection/v2.1.0/collection.json"
	},
	"item": [
		{
			"name": "products",
			"item": [
				{
					"name": "get all products",
					"request": {
						"method": "GET",
						"header": [],
						"url": {
							"raw": "http://localhost:3000/product",
							"protocol": "http",
							"host": [
								"localhost"
							],
							"port": "3000",
							"path": [
								"product"
							]
						}
					},
					"response": []
				},
				{
					"name": "get products",
					"request": {
						"method": "GET",
						"header": [],
						"url": {
							"raw": "http://localhost:3000/product?_page=1&_limit=10&productName=",
							"protocol": "http",
							"host": [
								"localhost"
							],
							"port": "3000",
							"path": [
								"product"
							],
							"query": [
								{
									"key": "_page",
									"value": "1"
								},
								{
									"key": "_limit",
									"value": "10"
								},
								{
									"key": "productName",
									"value": ""
								}
							]
						}
					},
					"response": []
				},
				{
					"name": "add product",
					"request": {
						"method": "POST",
						"header": [
							{
								"key": "Content-Type",
								"value": "application/json",
								"type": "default"
							}
						],
						"body": {
							"mode": "raw",
							"raw": " {\n    \"id\": \"dbbb2dde-284a-11ed-a261-0242ac120002\",\n    \"productName\": \"Hipon\",\n    \"imageUrl\": \"\",\n    \"description\": \"\",\n    \"quantity\": 100,\n    \"price\": 100\n}"
						},
						"url": {
							"raw": "http://localhost:3000/product",
							"protocol": "http",
							"host": [
								"localhost"
							],
							"port": "3000",
							"path": [
								"product"
							]
						}
					},
					"response": []
				},
				{
					"name": "delete product",
					"request": {
						"method": "DELETE",
						"header": [],
						"url": {
							"raw": "http://localhost:3000/product/fcba381a-284d-11ed-a261-0242ac120002",
							"protocol": "http",
							"host": [
								"localhost"
							],
							"port": "3000",
							"path": [
								"product",
								"fcba381a-284d-11ed-a261-0242ac120002"
							]
						}
					},
					"response": []
				}
			]
		},
		{
			"name": "login",
			"item": [
				{
					"name": "Signin",
					"request": {
						"method": "GET",
						"header": [
							{
								"key": "Content-Type",
								"value": "application/json",
								"type": "default"
							}
						],
						"url": {
							"raw": "http://localhost:3000/customer?username=josejuan&password=elhombre",
							"protocol": "http",
							"host": [
								"localhost"
							],
							"port": "3000",
							"path": [
								"customer"
							],
							"query": [
								{
									"key": "username",
									"value": "josejuan"
								},
								{
									"key": "password",
									"value": "elhombre"
								}
							]
						}
					},
					"response": []
				},
				{
					"name": "Signup",
					"request": {
						"method": "POST",
						"header": [
							{
								"key": "Content-Type",
								"value": "application/json",
								"type": "default"
							}
						],
						"body": {
							"mode": "raw",
							"raw": "{\n    \"id\": \"8aa716a4-2856-11ed-a261-0242ac120002\",\n    \"imageUrl\": \"\",\n    \"firstName\": \"Jose\",\n    \"lastName\": \"Juan\",\n    \"username\": \"josejuan\",\n    \"role\": \"customer\",\n    \"password\": \"elhombre\",\n    \"address\": \"pasig city\",\n    \"contact\": \"09212345670\",\n    \"age\": 25\n}"
						},
						"url": {
							"raw": "http://localhost:3000/customer",
							"protocol": "http",
							"host": [
								"localhost"
							],
							"port": "3000",
							"path": [
								"customer"
							]
						}
					},
					"response": []
				}
			]
		},
		{
			"name": "User",
			"item": [
				{
					"name": "deliveries",
					"item": [
						{
							"name": "1.0 Get ongoing delivery",
							"request": {
								"method": "GET",
								"header": [],
								"url": {
									"raw": "http://localhost:3000/ongoingDeliveries?customerId=27ca8710-284b-11ed-a261-0242ac120002&_sort=date&_order=desc&_page=1&_limit=10",
									"protocol": "http",
									"host": [
										"localhost"
									],
									"port": "3000",
									"path": [
										"ongoingDeliveries"
									],
									"query": [
										{
											"key": "customerId",
											"value": "27ca8710-284b-11ed-a261-0242ac120002"
										},
										{
											"key": "_sort",
											"value": "date"
										},
										{
											"key": "_order",
											"value": "desc"
										},
										{
											"key": "_page",
											"value": "1"
										},
										{
											"key": "_limit",
											"value": "10"
										}
									]
								}
							},
							"response": []
						},
						{
							"name": "1.1 Add ongoing delivery",
							"request": {
								"method": "POST",
								"header": [
									{
										"key": "Content-Type",
										"value": "application/json",
										"type": "default"
									}
								],
								"body": {
									"mode": "raw",
									"raw": "{\n    \"id\": \"dbbb2dde-284a-11ed-a261-0242ac120002\",\n    \"customerId\": \"27ca8710-284b-11ed-a261-0242ac120002\",\n    \"productId\": \"dbbb2dde-284a-11ed-a261-0242ac120002\",\n    \"productName\": \"Hipon\",\n    \"imageUrl\": \"\",\n    \"quantity\": 10,\n    \"price\": 50,\n    \"date\": \"2022-08-30T10:14:10+00:00\"\n}"
								},
								"url": {
									"raw": "http://localhost:3000/ongoingDeliveries",
									"protocol": "http",
									"host": [
										"localhost"
									],
									"port": "3000",
									"path": [
										"ongoingDeliveries"
									]
								}
							},
							"response": []
						},
						{
							"name": "1.2 Delete ongoing delivery",
							"request": {
								"method": "DELETE",
								"header": [],
								"url": {
									"raw": "http://localhost:3000/ongoingDeliveries/d2bb2dde-284a-11ed-a261-0242ac120002",
									"protocol": "http",
									"host": [
										"localhost"
									],
									"port": "3000",
									"path": [
										"ongoingDeliveries",
										"d2bb2dde-284a-11ed-a261-0242ac120002"
									]
								}
							},
							"response": []
						},
						{
							"name": "2.0 Get delivered product",
							"request": {
								"method": "GET",
								"header": [],
								"url": {
									"raw": "http://localhost:3000/deliveredProduct?customerId=27ca8710-284b-11ed-a261-0242ac120002&_sort=date&_order=desc&_page=1&_limit=10",
									"protocol": "http",
									"host": [
										"localhost"
									],
									"port": "3000",
									"path": [
										"deliveredProduct"
									],
									"query": [
										{
											"key": "customerId",
											"value": "27ca8710-284b-11ed-a261-0242ac120002"
										},
										{
											"key": "_sort",
											"value": "date"
										},
										{
											"key": "_order",
											"value": "desc"
										},
										{
											"key": "_page",
											"value": "1"
										},
										{
											"key": "_limit",
											"value": "10"
										}
									]
								}
							},
							"response": []
						},
						{
							"name": "2.1 Add delivered product",
							"request": {
								"method": "POST",
								"header": [
									{
										"key": "Content-Type",
										"value": "application/json",
										"type": "default"
									}
								],
								"body": {
									"mode": "raw",
									"raw": "{\n    \"id\": \"dbbb2dde-284a-11ed-a261-0242ac120002\",\n    \"customerId\": \"27ca8710-284b-11ed-a261-0242ac120002\",\n    \"productId\": \"dbbb2dde-284a-11ed-a261-0242ac120002\",\n    \"productName\": \"Hipon\",\n    \"imageUrl\": \"\",\n    \"quantity\": 10,\n    \"price\": 50,\n    \"date\": \"2022-08-30T10:14:10+00:00\"\n}"
								},
								"url": {
									"raw": "http://localhost:3000/deliveredProduct",
									"protocol": "http",
									"host": [
										"localhost"
									],
									"port": "3000",
									"path": [
										"deliveredProduct"
									],
									"query": [
										{
											"key": "",
											"value": "",
											"disabled": true
										}
									]
								}
							},
							"response": []
						},
						{
							"name": "2.2 Delete delivered product",
							"request": {
								"method": "DELETE",
								"header": [],
								"url": {
									"raw": "http://localhost:3000/deliveredProduct/d2bb2dde-284a-11ed-a261-0242ac120002",
									"protocol": "http",
									"host": [
										"localhost"
									],
									"port": "3000",
									"path": [
										"deliveredProduct",
										"d2bb2dde-284a-11ed-a261-0242ac120002"
									]
								}
							},
							"response": []
						},
						{
							"name": "3.0 Get cancelled delivered",
							"request": {
								"method": "GET",
								"header": [],
								"url": {
									"raw": "http://localhost:3000/canceledDeliveries?customerId=27ca8710-284b-11ed-a261-0242ac120002&_sort=date&_order=desc&_page=1&_limit=10",
									"protocol": "http",
									"host": [
										"localhost"
									],
									"port": "3000",
									"path": [
										"canceledDeliveries"
									],
									"query": [
										{
											"key": "customerId",
											"value": "27ca8710-284b-11ed-a261-0242ac120002"
										},
										{
											"key": "_sort",
											"value": "date"
										},
										{
											"key": "_order",
											"value": "desc"
										},
										{
											"key": "_page",
											"value": "1"
										},
										{
											"key": "_limit",
											"value": "10"
										}
									]
								}
							},
							"response": []
						},
						{
							"name": "3.1 Add cancelled delivery",
							"request": {
								"method": "POST",
								"header": [
									{
										"key": "Content-Type",
										"value": "application/json",
										"type": "default"
									}
								],
								"body": {
									"mode": "raw",
									"raw": "{\n    \"id\": \"dbbb2dde-284a-11ed-a261-0242ac120002\",\n    \"customerId\": \"27ca8710-284b-11ed-a261-0242ac120002\",\n    \"productId\": \"dbbb2dde-284a-11ed-a261-0242ac120002\",\n    \"productName\": \"Hipon\",\n    \"imageUrl\": \"\",\n    \"quantity\": 10,\n    \"price\": 50,\n    \"date\": \"2022-08-30T10:14:10+00:00\"\n}"
								},
								"url": {
									"raw": "http://localhost:3000/canceledDeliveries",
									"protocol": "http",
									"host": [
										"localhost"
									],
									"port": "3000",
									"path": [
										"canceledDeliveries"
									],
									"query": [
										{
											"key": "customerId",
											"value": "",
											"disabled": true
										}
									]
								}
							},
							"response": []
						},
						{
							"name": "3.2 Delete cancelled delivery",
							"request": {
								"method": "DELETE",
								"header": [],
								"url": {
									"raw": "http://localhost:3000/canceledDeliveries/d2bb2dde-284a-11ed-a261-0242ac120002",
									"protocol": "http",
									"host": [
										"localhost"
									],
									"port": "3000",
									"path": [
										"canceledDeliveries",
										"d2bb2dde-284a-11ed-a261-0242ac120002"
									]
								}
							},
							"response": []
						},
						{
							"name": "get all by date delivered product",
							"request": {
								"method": "GET",
								"header": [],
								"url": {
									"raw": "http://localhost:3000/deliveredProduct?date_gte=2022-08-28T10:14:10+00:00&date_lte=2022-08-31T10:14:10+00:00&_page=1&_limit=10",
									"protocol": "http",
									"host": [
										"localhost"
									],
									"port": "3000",
									"path": [
										"deliveredProduct"
									],
									"query": [
										{
											"key": "date_gte",
											"value": "2022-08-28T10:14:10+00:00"
										},
										{
											"key": "date_lte",
											"value": "2022-08-31T10:14:10+00:00"
										},
										{
											"key": "_page",
											"value": "1"
										},
										{
											"key": "_limit",
											"value": "10"
										}
									]
								}
							},
							"response": []
						},
						{
							"name": "get all by date ongoing delivery",
							"request": {
								"method": "GET",
								"header": [],
								"url": {
									"raw": "http://localhost:3000/ongoingDeliveries?date_gte=2022-08-28T10:14:10+00:00&date_lte=2022-08-31T10:14:10+00:00&_page=1&_limit=10",
									"protocol": "http",
									"host": [
										"localhost"
									],
									"port": "3000",
									"path": [
										"ongoingDeliveries"
									],
									"query": [
										{
											"key": "date_gte",
											"value": "2022-08-28T10:14:10+00:00"
										},
										{
											"key": "date_lte",
											"value": "2022-08-31T10:14:10+00:00"
										},
										{
											"key": "_page",
											"value": "1"
										},
										{
											"key": "_limit",
											"value": "10"
										}
									]
								}
							},
							"response": []
						},
						{
							"name": "get all by date cancelled delivery",
							"request": {
								"method": "GET",
								"header": [],
								"url": {
									"raw": "http://localhost:3000/canceledDeliveries?date_gte=2022-08-28T10:14:10+00:00&date_lte=2022-08-31T10:14:10+00:00&_page=1&_limit=10",
									"protocol": "http",
									"host": [
										"localhost"
									],
									"port": "3000",
									"path": [
										"canceledDeliveries"
									],
									"query": [
										{
											"key": "date_gte",
											"value": "2022-08-28T10:14:10+00:00"
										},
										{
											"key": "date_lte",
											"value": "2022-08-31T10:14:10+00:00"
										},
										{
											"key": "_page",
											"value": "1"
										},
										{
											"key": "_limit",
											"value": "10"
										}
									]
								}
							},
							"response": []
						}
					]
				},
				{
					"name": "user details",
					"item": [
						{
							"name": "get user",
							"request": {
								"method": "GET",
								"header": [],
								"url": {
									"raw": "http://localhost:3000/users/27ca8710-284b-11ed-a261-0242ac120002",
									"protocol": "http",
									"host": [
										"localhost"
									],
									"port": "3000",
									"path": [
										"users",
										"27ca8710-284b-11ed-a261-0242ac120002"
									]
								}
							},
							"response": []
						},
						{
							"name": "update user",
							"request": {
								"method": "PUT",
								"header": [
									{
										"key": "Content-Type",
										"value": "application/json",
										"type": "default"
									}
								],
								"body": {
									"mode": "raw",
									"raw": "{\n      \"imageUrl\": \"\",\n      \"firstName\": \"Mikey\",\n      \"lastName\": \"mouse\",\n      \"username\": \"mikeymouse\",\n      \"role\": \"customer\",\n      \"password\": \"cheesy\",\n      \"address\": \"pasig city\",\n      \"contact\": \"09212345678\",\n      \"age\": 30\n}"
								},
								"url": {
									"raw": "http://localhost:3000/users/27ca8710-284b-11ed-a261-0242ac120002",
									"protocol": "http",
									"host": [
										"localhost"
									],
									"port": "3000",
									"path": [
										"users",
										"27ca8710-284b-11ed-a261-0242ac120002"
									]
								}
							},
							"response": []
						}
					]
				}
			]
		}
	]
}